System,ROM Folder Name,Emulator (Click for Link),File Format,BIOS Files
**Nintendo 3DS (Standalone)**,`3ds` or `n3ds`,**[Citra (Standalone)](https://citra-emu.org/)**,.3ds .3dsx .app .axf cci .cxi .elf   <br/> .cia is incompatible with EmulationStation-DE and Steam ROM Manager  <br/> .cia can only be used if installed and played through Citra's GUI,Place `aes_keys.txt` (for encrypted ROMs) in: `Emulation/bios/citra/keys`
**Nintendo 64 (Standalone)**,n64,**[Rosalie's Mupen GUI (Standalone)](https://github.com/Rosalie241/RMG)**,.7z `.bin` .n64 .ndd .u1 .v64 .z64 .zip,Not Required
**Nintendo 64DD (Standalone)**,`n64` or `n64dd`,**[Rosalie's Mupen GUI (Standalone)](https://github.com/Rosalie241/RMG)**,.7z `.bin` .n64 .ndd .u1 .v64 .z64 .zip,Nintendo 64DD BIOS:<br>`64DD_IPL_US.n64`<br>`64DD_IPL_JP.n64`<br>`64DD_IPL_DEV.n64`
Nintendo 64,n64,[RetroArch Mupen64plus-Next](https://docs.libretro.com/library/mupen64plus/),.7z `.bin` .n64 .ndd .u1 .v64 .z64 .zip,Not Required
**Nintendo DS (Standalone)**,nds,**[melonDS (Standalone)](https://melonds.kuribo64.net/)**,.nds,**Optional:**<br/>Nintendo DS BIOS:<br/>`bios7.bin`<br/>`bios9.bin`<br/>`firmware.bin`
**Nintendo DSiWare (Standalone)**,nds,**[melonDS (Standalone)](https://melonds.kuribo64.net/)**,.app <br/> [How to Set Up DSIWare](https://emudeck.github.io/emulators/steamos/melonds/#how-to-set-up-dsiware),Nintendo DSI BIOS    `dsi_bios7.bin`    `dsi_bios9.bin`    `dsi_firmware.bin`    `dsi_nand.bin`
Nintendo DS,nds,[RetroArch melonDS (Legacy Core)](https://docs.libretro.com/library/melonds/),.7z .nds .zip,Nintendo DS BIOS:    `bios7.bin`     `bios9.bin`     `firmware.bin`
Nintendo DS,nds,[RetroArch melonDS DS](https://github.com/JesseTG/melonds-ds),.7z .nds .zip,**Optional:**<br/>Nintendo DS BIOS:<br/>`bios7.bin`<br/>`bios9.bin`<br/>`firmware.bin`
**Nintendo Game Boy (Standalone)**,gb,**[mGBA (Standalone)](https://mgba.io/)**,.7z .dmg .gb .zip,Not Required
Nintendo Game Boy,gb,[RetroArch SameBoy](https://docs.libretro.com/library/sameboy/),.7z .dmg .gb .zip,Not Required
Nintendo Game Boy,gb,[RetroArch Gambatte](https://docs.libretro.com/library/gambatte/),.7z .dmg .gb .zip,Not Required
**Nintendo Game Boy Advance (Standalone)**,gba,**[mGBA (Standalone)](https://mgba.io/)**,.7z .gba .zip,Not Required
Nintendo Game Boy Advance,gba,[RetroArch mGBA](https://docs.libretro.com/library/mgba/),.7z .gba .zip,Not Required
**Nintendo Game Boy Color (Standalone)**,gbc,**[mGBA (Standalone)](https://mgba.io/)**,.7z .dmg .gb .gbc .zip,Not Required
Nintendo Game Boy Color,gbc,[RetroArch SameBoy](https://docs.libretro.com/library/sameboy/),.7z .dmg .gb .gbc .zip,Not Required
Nintendo Game Boy Color,gbc,[RetroArch Gambatte](https://docs.libretro.com/library/gambatte/),.7z .dmg .gb .gbc .zip,Not Required
**Nintendo GameCube (Standalone)**,`gc` or `gamecube`,**[Dolphin (Standalone)](https://dolphin-emu.org/)**,.ciso .dol .elf .gcm .gcz .iso .m3u .nkit .rvz .wad .wbfs .wia,**Optional:**<br/>[Gamecube BIOS](https://emudeck.github.io/emulators/steamos/dolphin/#how-to-set-up-gamecube-bios)<br/>`IPL.bin` in the correct region folder.
Nintendo NES / Famicom,`nes` or `famicom`,[RetroArch Mesen](https://docs.libretro.com/library/mesen/),.7z .fds .nes .unf .unif .zip,FDS (Famicom Disk System) games require a BIOS:  `disksys.rom` in `Emulation/bios`
Nintendo NES / Famicom,`nes` or `famicom`,[RetroArch Nestopia](https://docs.libretro.com/library/nestopia_ue/),.7z .fds .nes .unf .unif .zip,FDS (Famicom Disk System) games require a BIOS:  `disksys.rom` in `Emulation/bios`
Super Nintendo,`snes` or `snesna`,[RetroArch Snes9x](https://docs.libretro.com/library/snes9x/),.7z .bs .fig .sfc .smc .swx .zip,Not Required
Super Nintendo Widescreen,`sneshd`,[RetroArch bsnes hd beta](https://github.com/DerKoun/bsnes-hd),.7z .bs .fig .sfc .smc .swx .zip,Not Required
**Nintendo PrimeHack (Standalone)**,primehacks,**[PrimeHack (Metroid Prime) (Standalone)](https://forums.dolphin-emu.org/Thread-fork-primehack-fps-controls-and-more-for-metroid-prime)**,.ciso .dol .elf .gcm .gcz .iso .json .nkit .rvz .wad .wbfs .wia,Not Required
**Nintendo Switch (Standalone)**,switch,**[Ryujinx (Standalone)](https://ryujinx.org/)**,.kp .nca .nro .nso .nsp .nsz .xci,∙ Place `prod.keys` in:  `Emulation/bios/ryujinx/keys` <br/> ∙ Install firmware through Ryujinx GUI <br/> ∙ **Both** firmware and keys are **required** for Ryujinx
**Nintendo Switch (Standalone)**,switch,**[Yuzu (Standalone)](https://yuzu-emu.org/)**,.kp .nca .nro .nso .nsp .nsz .xci,∙ Place `prod.keys` in: `Emulation/bios/yuzu/keys`<br/> ∙ Place `Firmware` files in: `Emulation/bios/yuzu/firmware`
Nintendo Virtual Boy,virtualboy,[RetroArch Beetle VB](https://docs.libretro.com/library/beetle_vb/),.7z .bin .vb .vboy .zip,Not Required
**Nintendo Wii (Standalone)**,wii,**[Dolphin (Standalone)](https://dolphin-emu.org/)**,.ciso .dol .elf .gcm .gcz .iso .json .m3u .nkit .rvz .wad .wbfs .wia,Not Required
**Nintendo Wii U (Standalone)**,"`wiiu/roms`:material-information-outline:{ title=""Place your games here,  do not install your games through Cemu"" }",**[Cemu (Standalone) (Native)](https://cemu.info/)**,.elf .rpx .wad .wua .wud .wux,"Place `keys.txt` (for encrypted ROMs) in: `/home/deck/.local/share/Cemu/`"
